{
  "formatVersion": 1,
  "database": {
    "version": 1,
    "identityHash": "49d79a679d957244eb72070e9fbd9b7c",
    "entities": [
      {
        "tableName": "WeatherData",
        "createSql": "CREATE TABLE IF NOT EXISTS `${TABLE_NAME}` (`dt` INTEGER, `weather` TEXT, `base` TEXT, `visibility` INTEGER, `timezone` INTEGER, `id` INTEGER, `name` TEXT, `cod` INTEGER, `coordlon` REAL, `coordlat` REAL, `maintemp` REAL, `mainfeels_like` REAL, `maintemp_min` REAL, `maintemp_max` REAL, `mainpressure` INTEGER, `mainhumidity` INTEGER, `windspeed` REAL, `winddeg` INTEGER, `cloudsall` INTEGER, `systype` INTEGER, `sysid` INTEGER, `syscountry` TEXT, `syssunrise` INTEGER, `syssunset` INTEGER, PRIMARY KEY(`dt`))",
        "fields": [
          {
            "fieldPath": "dt",
            "columnName": "dt",
            "affinity": "INTEGER",
            "notNull": false
          },
          {
            "fieldPath": "weather",
            "columnName": "weather",
            "affinity": "TEXT",
            "notNull": false
          },
          {
            "fieldPath": "base",
            "columnName": "base",
            "affinity": "TEXT",
            "notNull": false
          },
          {
            "fieldPath": "visibility",
            "columnName": "visibility",
            "affinity": "INTEGER",
            "notNull": false
          },
          {
            "fieldPath": "timezone",
            "columnName": "timezone",
            "affinity": "INTEGER",
            "notNull": false
          },
          {
            "fieldPath": "id",
            "columnName": "id",
            "affinity": "INTEGER",
            "notNull": false
          },
          {
            "fieldPath": "name",
            "columnName": "name",
            "affinity": "TEXT",
            "notNull": false
          },
          {
            "fieldPath": "cod",
            "columnName": "cod",
            "affinity": "INTEGER",
            "notNull": false
          },
          {
            "fieldPath": "coord.lon",
            "columnName": "coordlon",
            "affinity": "REAL",
            "notNull": false
          },
          {
            "fieldPath": "coord.lat",
            "columnName": "coordlat",
            "affinity": "REAL",
            "notNull": false
          },
          {
            "fieldPath": "main.temp",
            "columnName": "maintemp",
            "affinity": "REAL",
            "notNull": false
          },
          {
            "fieldPath": "main.feelsLike",
            "columnName": "mainfeels_like",
            "affinity": "REAL",
            "notNull": false
          },
          {
            "fieldPath": "main.tempMin",
            "columnName": "maintemp_min",
            "affinity": "REAL",
            "notNull": false
          },
          {
            "fieldPath": "main.tempMax",
            "columnName": "maintemp_max",
            "affinity": "REAL",
            "notNull": false
          },
          {
            "fieldPath": "main.pressure",
            "columnName": "mainpressure",
            "affinity": "INTEGER",
            "notNull": false
          },
          {
            "fieldPath": "main.humidity",
            "columnName": "mainhumidity",
            "affinity": "INTEGER",
            "notNull": false
          },
          {
            "fieldPath": "wind.speed",
            "columnName": "windspeed",
            "affinity": "REAL",
            "notNull": false
          },
          {
            "fieldPath": "wind.deg",
            "columnName": "winddeg",
            "affinity": "INTEGER",
            "notNull": false
          },
          {
            "fieldPath": "clouds.all",
            "columnName": "cloudsall",
            "affinity": "INTEGER",
            "notNull": false
          },
          {
            "fieldPath": "sys.type",
            "columnName": "systype",
            "affinity": "INTEGER",
            "notNull": false
          },
          {
            "fieldPath": "sys.id",
            "columnName": "sysid",
            "affinity": "INTEGER",
            "notNull": false
          },
          {
            "fieldPath": "sys.country",
            "columnName": "syscountry",
            "affinity": "TEXT",
            "notNull": false
          },
          {
            "fieldPath": "sys.sunrise",
            "columnName": "syssunrise",
            "affinity": "INTEGER",
            "notNull": false
          },
          {
            "fieldPath": "sys.sunset",
            "columnName": "syssunset",
            "affinity": "INTEGER",
            "notNull": false
          }
        ],
        "primaryKey": {
          "columnNames": [
            "dt"
          ],
          "autoGenerate": false
        },
        "indices": [],
        "foreignKeys": []
      }
    ],
    "views": [],
    "setupQueries": [
      "CREATE TABLE IF NOT EXISTS room_master_table (id INTEGER PRIMARY KEY,identity_hash TEXT)",
      "INSERT OR REPLACE INTO room_master_table (id,identity_hash) VALUES(42, '49d79a679d957244eb72070e9fbd9b7c')"
    ]
  }
}